0	0	0	0	0	0	0	0	0	0	0	0	0	0	0	0	0	0	0	0	0	0	0	0	0	0	0	0	0	0	0	0	0	0	0	0	0	0	0	0	0	0	0	0	0	0	0	0	0	0	0	0	0	0	0	0	0	0	0	0	
0	0.101873	0.188423	0.250845	0.288998	0.308708	0.317278	0.320398	0.32134	0.321575	0.321622	0.321629	0.32163	0.32163	0.32163	0.32163	0.32163	0.32163	0.32163	0.32163	0.32163	0.32163	0.32163	0.32163	0.32163	0.32163	0.32163	0.32163	0.32163	0.32163	0.32163	0.32163	0.32163	0.32163	0.32163	0.32163	0.32163	0.32163	0.32163	0.32163	0.32163	0.32163	0.32163	0.32163	0.32163	0.32163	0.32163	0.32163	0.321629	0.321622	0.321575	0.32134	0.320398	0.317278	0.308708	0.288998	0.250845	0.188423	0.101873	0	
0	0.188423	0.34838	0.46356	0.533784	0.569932	0.585578	0.591236	0.592933	0.59335	0.593432	0.593445	0.593447	0.593447	0.593447	0.593447	0.593447	0.593447	0.593447	0.593447	0.593447	0.593447	0.593447	0.593447	0.593447	0.593447	0.593447	0.593447	0.593447	0.593447	0.593447	0.593447	0.593447	0.593447	0.593447	0.593447	0.593447	0.593447	0.593447	0.593447	0.593447	0.593447	0.593447	0.593447	0.593447	0.593447	0.593447	0.593447	0.593445	0.593432	0.59335	0.592933	0.591236	0.585578	0.569932	0.533784	0.46356	0.34838	0.188423	0	
0	0.250845	0.46356	0.616385	0.709238	0.756805	0.777258	0.784594	0.78677	0.787297	0.787399	0.787415	0.787417	0.787417	0.787417	0.787417	0.787417	0.787417	0.787417	0.787417	0.787417	0.787417	0.787417	0.787417	0.787417	0.787417	0.787417	0.787417	0.787417	0.787417	0.787417	0.787417	0.787417	0.787417	0.787417	0.787417	0.787417	0.787417	0.787417	0.787417	0.787417	0.787417	0.787417	0.787417	0.787417	0.787417	0.787417	0.787417	0.787415	0.787399	0.787297	0.78677	0.784594	0.777258	0.756805	0.709238	0.616385	0.46356	0.250845	0	
0	0.288998	0.533784	0.709238	0.815458	0.8696	0.892731	0.900958	0.903373	0.90395	0.904061	0.904077	0.904079	0.904079	0.904079	0.904079	0.904079	0.904079	0.904079	0.904079	0.904079	0.904079	0.904079	0.904079	0.904079	0.904079	0.904079	0.904079	0.904079	0.904079	0.904079	0.904079	0.904079	0.904079	0.904079	0.904079	0.904079	0.904079	0.904079	0.904079	0.904079	0.904079	0.904079	0.904079	0.904079	0.904079	0.904079	0.904079	0.904077	0.904061	0.90395	0.903373	0.900958	0.892731	0.8696	0.815458	0.709238	0.533784	0.288998	0	
0	0.308708	0.569932	0.756805	0.8696	0.926865	0.951204	0.959808	0.962315	0.962909	0.963021	0.963038	0.96304	0.96304	0.96304	0.96304	0.96304	0.96304	0.96304	0.96304	0.96304	0.96304	0.96304	0.96304	0.96304	0.96304	0.96304	0.96304	0.96304	0.96304	0.96304	0.96304	0.96304	0.96304	0.96304	0.96304	0.96304	0.96304	0.96304	0.96304	0.96304	0.96304	0.96304	0.96304	0.96304	0.96304	0.96304	0.96304	0.963038	0.963021	0.962909	0.962315	0.959808	0.951204	0.926865	0.8696	0.756805	0.569932	0.308708	0	
0	0.317278	0.585578	0.777258	0.892731	0.951204	0.975981	0.984708	0.98724	0.987838	0.987951	0.987967	0.987969	0.987969	0.987969	0.987969	0.987969	0.987969	0.987969	0.987969	0.987969	0.987969	0.987969	0.987969	0.987969	0.987969	0.987969	0.987969	0.987969	0.987969	0.987969	0.987969	0.987969	0.987969	0.987969	0.987969	0.987969	0.987969	0.987969	0.987969	0.987969	0.987969	0.987969	0.987969	0.987969	0.987969	0.987969	0.987969	0.987967	0.987951	0.987838	0.98724	0.984708	0.975981	0.951204	0.892731	0.777258	0.585578	0.317278	0	
0	0.320398	0.591236	0.784594	0.900958	0.959808	0.984708	0.993465	0.996002	0.996601	0.996713	0.99673	0.996732	0.996732	0.996732	0.996732	0.996732	0.996732	0.996732	0.996732	0.996732	0.996732	0.996732	0.996732	0.996732	0.996732	0.996732	0.996732	0.996732	0.996732	0.996732	0.996732	0.996732	0.996732	0.996732	0.996732	0.996732	0.996732	0.996732	0.996732	0.996732	0.996732	0.996732	0.996732	0.996732	0.996732	0.996732	0.996732	0.99673	0.996713	0.996601	0.996002	0.993465	0.984708	0.959808	0.900958	0.784594	0.591236	0.320398	0	
0	0.32134	0.592933	0.78677	0.903373	0.962315	0.98724	0.996002	0.99854	0.999139	0.999252	0.999268	0.99927	0.99927	0.99927	0.99927	0.99927	0.99927	0.99927	0.99927	0.99927	0.99927	0.99927	0.99927	0.99927	0.99927	0.99927	0.99927	0.99927	0.99927	0.99927	0.99927	0.99927	0.99927	0.99927	0.99927	0.99927	0.99927	0.99927	0.99927	0.99927	0.99927	0.99927	0.99927	0.99927	0.99927	0.99927	0.99927	0.999268	0.999252	0.999139	0.99854	0.996002	0.98724	0.962315	0.903373	0.78677	0.592933	0.32134	0	
0	0.321575	0.59335	0.787297	0.90395	0.962909	0.987838	0.996601	0.999139	0.999737	0.99985	0.999867	0.999868	0.999869	0.999869	0.999869	0.999869	0.999869	0.999869	0.999869	0.999869	0.999869	0.999869	0.999869	0.999869	0.999869	0.999869	0.999869	0.999869	0.999869	0.999869	0.999869	0.999869	0.999869	0.999869	0.999869	0.999869	0.999869	0.999869	0.999869	0.999869	0.999869	0.999869	0.999869	0.999869	0.999869	0.999869	0.999868	0.999867	0.99985	0.999737	0.999139	0.996601	0.987838	0.962909	0.90395	0.787297	0.59335	0.321575	0	
0	0.321622	0.593432	0.787399	0.904061	0.963021	0.987951	0.996713	0.999252	0.99985	0.999963	0.999979	0.999981	0.999981	0.999981	0.999981	0.999981	0.999981	0.999981	0.999981	0.999981	0.999981	0.999981	0.999981	0.999981	0.999981	0.999981	0.999981	0.999981	0.999981	0.999981	0.999981	0.999981	0.999981	0.999981	0.999981	0.999981	0.999981	0.999981	0.999981	0.999981	0.999981	0.999981	0.999981	0.999981	0.999981	0.999981	0.999981	0.999979	0.999963	0.99985	0.999252	0.996713	0.987951	0.963021	0.904061	0.787399	0.593432	0.321622	0	
0	0.321629	0.593445	0.787415	0.904077	0.963038	0.987967	0.99673	0.999268	0.999867	0.999979	0.999996	0.999998	0.999998	0.999998	0.999998	0.999998	0.999998	0.999998	0.999998	0.999998	0.999998	0.999998	0.999998	0.999998	0.999998	0.999998	0.999998	0.999998	0.999998	0.999998	0.999998	0.999998	0.999998	0.999998	0.999998	0.999998	0.999998	0.999998	0.999998	0.999998	0.999998	0.999998	0.999998	0.999998	0.999998	0.999998	0.999998	0.999996	0.999979	0.999867	0.999268	0.99673	0.987967	0.963038	0.904077	0.787415	0.593445	0.321629	0	
0	0.32163	0.593447	0.787417	0.904079	0.96304	0.987969	0.996732	0.99927	0.999868	0.999981	0.999998	1	1	1	1	1	1	1	1	1	1	1	1	1	1	1	1	1	1	1	1	1	1	1	1	1	1	1	1	1	1	1	1	1	1	1	1	0.999998	0.999981	0.999868	0.99927	0.996732	0.987969	0.96304	0.904079	0.787417	0.593447	0.32163	0	
0	0.32163	0.593447	0.787417	0.904079	0.96304	0.987969	0.996732	0.99927	0.999869	0.999981	0.999998	1	1	1	1	1	1	1	1	1	1	1	1	1	1	1	1	1	1	1	1	1	1	1	1	1	1	1	1	1	1	1	1	1	1	1	1	0.999998	0.999981	0.999869	0.99927	0.996732	0.987969	0.96304	0.904079	0.787417	0.593447	0.32163	0	
0	0.32163	0.593447	0.787417	0.904079	0.96304	0.987969	0.996732	0.99927	0.999869	0.999981	0.999998	1	1	1	1	1	1	1	1	1	1	1	1	1	1	1	1	1	1	1	1	1	1	1	1	1	1	1	1	1	1	1	1	1	1	1	1	0.999998	0.999981	0.999869	0.99927	0.996732	0.987969	0.96304	0.904079	0.787417	0.593447	0.32163	0	
0	0.32163	0.593447	0.787417	0.904079	0.96304	0.987969	0.996732	0.99927	0.999869	0.999981	0.999998	1	1	1	1	1	1	1	1	1	1	1	1	1	1	1	1	1	1	1	1	1	1	1	1	1	1	1	1	1	1	1	1	1	1	1	1	0.999998	0.999981	0.999869	0.99927	0.996732	0.987969	0.96304	0.904079	0.787417	0.593447	0.32163	0	
0	0.32163	0.593447	0.787417	0.904079	0.96304	0.987969	0.996732	0.99927	0.999869	0.999981	0.999998	1	1	1	1	1	1	1	1	1	1	1	1	1	1	1	1	1	1	1	1	1	1	1	1	1	1	1	1	1	1	1	1	1	1	1	1	0.999998	0.999981	0.999869	0.99927	0.996732	0.987969	0.96304	0.904079	0.787417	0.593447	0.32163	0	
0	0.32163	0.593447	0.787417	0.904079	0.96304	0.987969	0.996732	0.99927	0.999869	0.999981	0.999998	1	1	1	1	1	1	1	1	1	1	1	1	1	1	1	1	1	1	1	1	1	1	1	1	1	1	1	1	1	1	1	1	1	1	1	1	0.999998	0.999981	0.999869	0.99927	0.996732	0.987969	0.96304	0.904079	0.787417	0.593447	0.32163	0	
0	0.32163	0.593447	0.787417	0.904079	0.96304	0.987969	0.996732	0.99927	0.999869	0.999981	0.999998	1	1	1	1	1	1	1	1	1	1	1	1	1	1	1	1	1	1	1	1	1	1	1	1	1	1	1	1	1	1	1	1	1	1	1	1	0.999998	0.999981	0.999869	0.99927	0.996732	0.987969	0.96304	0.904079	0.787417	0.593447	0.32163	0	
0	0.32163	0.593447	0.787417	0.904079	0.96304	0.987969	0.996732	0.99927	0.999869	0.999981	0.999998	1	1	1	1	1	1	1	1	1	1	1	1	1	1	1	1	1	1	1	1	1	1	1	1	1	1	1	1	1	1	1	1	1	1	1	1	0.999998	0.999981	0.999869	0.99927	0.996732	0.987969	0.96304	0.904079	0.787417	0.593447	0.32163	0	
0	0.32163	0.593447	0.787417	0.904079	0.96304	0.987969	0.996732	0.99927	0.999869	0.999981	0.999998	1	1	1	1	1	1	1	1	1	1	1	1	1	1	1	1	1	1	1	1	1	1	1	1	1	1	1	1	1	1	1	1	1	1	1	1	0.999998	0.999981	0.999869	0.99927	0.996732	0.987969	0.96304	0.904079	0.787417	0.593447	0.32163	0	
0	0.32163	0.593447	0.787417	0.904079	0.96304	0.987969	0.996732	0.99927	0.999869	0.999981	0.999998	1	1	1	1	1	1	1	1	1	1	1	1	1	1	1	1	1	1	1	1	1	1	1	1	1	1	1	1	1	1	1	1	1	1	1	1	0.999998	0.999981	0.999869	0.99927	0.996732	0.987969	0.96304	0.904079	0.787417	0.593447	0.32163	0	
0	0.32163	0.593447	0.787417	0.904079	0.96304	0.987969	0.996732	0.99927	0.999869	0.999981	0.999998	1	1	1	1	1	1	1	1	1	1	1	1	1	1	1	1	1	1	1	1	1	1	1	1	1	1	1	1	1	1	1	1	1	1	1	1	0.999998	0.999981	0.999869	0.99927	0.996732	0.987969	0.96304	0.904079	0.787417	0.593447	0.32163	0	
0	0.32163	0.593447	0.787417	0.904079	0.96304	0.987969	0.996732	0.99927	0.999869	0.999981	0.999998	1	1	1	1	1	1	1	1	1	1	1	1	1	1	1	1	1	1	1	1	1	1	1	1	1	1	1	1	1	1	1	1	1	1	1	1	0.999998	0.999981	0.999869	0.99927	0.996732	0.987969	0.96304	0.904079	0.787417	0.593447	0.32163	0	
0	0.32163	0.593447	0.787417	0.904079	0.96304	0.987969	0.996732	0.99927	0.999869	0.999981	0.999998	1	1	1	1	1	1	1	1	1	1	1	1	1	1	1	1	1	1	1	1	1	1	1	1	1	1	1	1	1	1	1	1	1	1	1	1	0.999998	0.999981	0.999869	0.99927	0.996732	0.987969	0.96304	0.904079	0.787417	0.593447	0.32163	0	
0	0.32163	0.593447	0.787417	0.904079	0.96304	0.987969	0.996732	0.99927	0.999869	0.999981	0.999998	1	1	1	1	1	1	1	1	1	1	1	1	1	1	1	1	1	1	1	1	1	1	1	1	1	1	1	1	1	1	1	1	1	1	1	1	0.999998	0.999981	0.999869	0.99927	0.996732	0.987969	0.96304	0.904079	0.787417	0.593447	0.32163	0	
0	0.32163	0.593447	0.787417	0.904079	0.96304	0.987969	0.996732	0.99927	0.999869	0.999981	0.999998	1	1	1	1	1	1	1	1	1	1	1	1	1	1	1	1	1	1	1	1	1	1	1	1	1	1	1	1	1	1	1	1	1	1	1	1	0.999998	0.999981	0.999869	0.99927	0.996732	0.987969	0.96304	0.904079	0.787417	0.593447	0.32163	0	
0	0.32163	0.593447	0.787417	0.904079	0.96304	0.987969	0.996732	0.99927	0.999869	0.999981	0.999998	1	1	1	1	1	1	1	1	1	1	1	1	1	1	1	1	1	1	1	1	1	1	1	1	1	1	1	1	1	1	1	1	1	1	1	1	0.999998	0.999981	0.999869	0.99927	0.996732	0.987969	0.96304	0.904079	0.787417	0.593447	0.32163	0	
0	0.32163	0.593447	0.787417	0.904079	0.96304	0.987969	0.996732	0.99927	0.999869	0.999981	0.999998	1	1	1	1	1	1	1	1	1	1	1	1	1	1	1	1	1	1	1	1	1	1	1	1	1	1	1	1	1	1	1	1	1	1	1	1	0.999998	0.999981	0.999869	0.99927	0.996732	0.987969	0.96304	0.904079	0.787417	0.593447	0.32163	0	
0	0.32163	0.593447	0.787417	0.904079	0.96304	0.987969	0.996732	0.99927	0.999869	0.999981	0.999998	1	1	1	1	1	1	1	1	1	1	1	1	1	1	1	1	1	1	1	1	1	1	1	1	1	1	1	1	1	1	1	1	1	1	1	1	0.999998	0.999981	0.999869	0.99927	0.996732	0.987969	0.96304	0.904079	0.787417	0.593447	0.32163	0	
0	0.32163	0.593447	0.787417	0.904079	0.96304	0.987969	0.996732	0.99927	0.999869	0.999981	0.999998	1	1	1	1	1	1	1	1	1	1	1	1	1	1	1	1	1	1	1	1	1	1	1	1	1	1	1	1	1	1	1	1	1	1	1	1	0.999998	0.999981	0.999869	0.99927	0.996732	0.987969	0.96304	0.904079	0.787417	0.593447	0.32163	0	
0	0.32163	0.593447	0.787417	0.904079	0.96304	0.987969	0.996732	0.99927	0.999869	0.999981	0.999998	1	1	1	1	1	1	1	1	1	1	1	1	1	1	1	1	1	1	1	1	1	1	1	1	1	1	1	1	1	1	1	1	1	1	1	1	0.999998	0.999981	0.999869	0.99927	0.996732	0.987969	0.96304	0.904079	0.787417	0.593447	0.32163	0	
0	0.32163	0.593447	0.787417	0.904079	0.96304	0.987969	0.996732	0.99927	0.999869	0.999981	0.999998	1	1	1	1	1	1	1	1	1	1	1	1	1	1	1	1	1	1	1	1	1	1	1	1	1	1	1	1	1	1	1	1	1	1	1	1	0.999998	0.999981	0.999869	0.99927	0.996732	0.987969	0.96304	0.904079	0.787417	0.593447	0.32163	0	
0	0.32163	0.593447	0.787417	0.904079	0.96304	0.987969	0.996732	0.99927	0.999869	0.999981	0.999998	1	1	1	1	1	1	1	1	1	1	1	1	1	1	1	1	1	1	1	1	1	1	1	1	1	1	1	1	1	1	1	1	1	1	1	1	0.999998	0.999981	0.999869	0.99927	0.996732	0.987969	0.96304	0.904079	0.787417	0.593447	0.32163	0	
0	0.32163	0.593447	0.787417	0.904079	0.96304	0.987969	0.996732	0.99927	0.999869	0.999981	0.999998	1	1	1	1	1	1	1	1	1	1	1	1	1	1	1	1	1	1	1	1	1	1	1	1	1	1	1	1	1	1	1	1	1	1	1	1	0.999998	0.999981	0.999869	0.99927	0.996732	0.987969	0.96304	0.904079	0.787417	0.593447	0.32163	0	
0	0.32163	0.593447	0.787417	0.904079	0.96304	0.987969	0.996732	0.99927	0.999869	0.999981	0.999998	1	1	1	1	1	1	1	1	1	1	1	1	1	1	1	1	1	1	1	1	1	1	1	1	1	1	1	1	1	1	1	1	1	1	1	1	0.999998	0.999981	0.999869	0.99927	0.996732	0.987969	0.96304	0.904079	0.787417	0.593447	0.32163	0	
0	0.32163	0.593447	0.787417	0.904079	0.96304	0.987969	0.996732	0.99927	0.999869	0.999981	0.999998	1	1	1	1	1	1	1	1	1	1	1	1	1	1	1	1	1	1	1	1	1	1	1	1	1	1	1	1	1	1	1	1	1	1	1	1	0.999998	0.999981	0.999869	0.99927	0.996732	0.987969	0.96304	0.904079	0.787417	0.593447	0.32163	0	
0	0.32163	0.593447	0.787417	0.904079	0.96304	0.987969	0.996732	0.99927	0.999868	0.999981	0.999998	1	1	1	1	1	1	1	1	1	1	1	1	1	1	1	1	1	1	1	1	1	1	1	1	1	1	1	1	1	1	1	1	1	1	1	1	0.999998	0.999981	0.999868	0.99927	0.996732	0.987969	0.96304	0.904079	0.787417	0.593447	0.32163	0	
0	0.321629	0.593445	0.787415	0.904077	0.963038	0.987967	0.99673	0.999268	0.999867	0.999979	0.999996	0.999998	0.999998	0.999998	0.999998	0.999998	0.999998	0.999998	0.999998	0.999998	0.999998	0.999998	0.999998	0.999998	0.999998	0.999998	0.999998	0.999998	0.999998	0.999998	0.999998	0.999998	0.999998	0.999998	0.999998	0.999998	0.999998	0.999998	0.999998	0.999998	0.999998	0.999998	0.999998	0.999998	0.999998	0.999998	0.999998	0.999996	0.999979	0.999867	0.999268	0.99673	0.987967	0.963038	0.904077	0.787415	0.593445	0.321629	0	
0	0.321622	0.593432	0.787399	0.904061	0.963021	0.987951	0.996713	0.999252	0.99985	0.999963	0.999979	0.999981	0.999981	0.999981	0.999981	0.999981	0.999981	0.999981	0.999981	0.999981	0.999981	0.999981	0.999981	0.999981	0.999981	0.999981	0.999981	0.999981	0.999981	0.999981	0.999981	0.999981	0.999981	0.999981	0.999981	0.999981	0.999981	0.999981	0.999981	0.999981	0.999981	0.999981	0.999981	0.999981	0.999981	0.999981	0.999981	0.999979	0.999963	0.99985	0.999252	0.996713	0.987951	0.963021	0.904061	0.787399	0.593432	0.321622	0	
0	0.321575	0.59335	0.787297	0.90395	0.962909	0.987838	0.996601	0.999139	0.999737	0.99985	0.999867	0.999868	0.999869	0.999869	0.999869	0.999869	0.999869	0.999869	0.999869	0.999869	0.999869	0.999869	0.999869	0.999869	0.999869	0.999869	0.999869	0.999869	0.999869	0.999869	0.999869	0.999869	0.999869	0.999869	0.999869	0.999869	0.999869	0.999869	0.999869	0.999869	0.999869	0.999869	0.999869	0.999869	0.999869	0.999869	0.999868	0.999867	0.99985	0.999737	0.999139	0.996601	0.987838	0.962909	0.90395	0.787297	0.59335	0.321575	0	
0	0.32134	0.592933	0.78677	0.903373	0.962315	0.98724	0.996002	0.99854	0.999139	0.999252	0.999268	0.99927	0.99927	0.99927	0.99927	0.99927	0.99927	0.99927	0.99927	0.99927	0.99927	0.99927	0.99927	0.99927	0.99927	0.99927	0.99927	0.99927	0.99927	0.99927	0.99927	0.99927	0.99927	0.99927	0.99927	0.99927	0.99927	0.99927	0.99927	0.99927	0.99927	0.99927	0.99927	0.99927	0.99927	0.99927	0.99927	0.999268	0.999252	0.999139	0.99854	0.996002	0.98724	0.962315	0.903373	0.78677	0.592933	0.32134	0	
0	0.320398	0.591236	0.784594	0.900958	0.959808	0.984708	0.993465	0.996002	0.996601	0.996713	0.99673	0.996732	0.996732	0.996732	0.996732	0.996732	0.996732	0.996732	0.996732	0.996732	0.996732	0.996732	0.996732	0.996732	0.996732	0.996732	0.996732	0.996732	0.996732	0.996732	0.996732	0.996732	0.996732	0.996732	0.996732	0.996732	0.996732	0.996732	0.996732	0.996732	0.996732	0.996732	0.996732	0.996732	0.996732	0.996732	0.996732	0.99673	0.996713	0.996601	0.996002	0.993465	0.984708	0.959808	0.900958	0.784594	0.591236	0.320398	0	
0	0.317278	0.585578	0.777258	0.892731	0.951204	0.975981	0.984708	0.98724	0.987838	0.987951	0.987967	0.987969	0.987969	0.987969	0.987969	0.987969	0.987969	0.987969	0.987969	0.987969	0.987969	0.987969	0.987969	0.987969	0.987969	0.987969	0.987969	0.987969	0.987969	0.987969	0.987969	0.987969	0.987969	0.987969	0.987969	0.987969	0.987969	0.987969	0.987969	0.987969	0.987969	0.987969	0.987969	0.987969	0.987969	0.987969	0.987969	0.987967	0.987951	0.987838	0.98724	0.984708	0.975981	0.951204	0.892731	0.777258	0.585578	0.317278	0	
0	0.308708	0.569932	0.756805	0.8696	0.926865	0.951204	0.959808	0.962315	0.962909	0.963021	0.963038	0.96304	0.96304	0.96304	0.96304	0.96304	0.96304	0.96304	0.96304	0.96304	0.96304	0.96304	0.96304	0.96304	0.96304	0.96304	0.96304	0.96304	0.96304	0.96304	0.96304	0.96304	0.96304	0.96304	0.96304	0.96304	0.96304	0.96304	0.96304	0.96304	0.96304	0.96304	0.96304	0.96304	0.96304	0.96304	0.96304	0.963038	0.963021	0.962909	0.962315	0.959808	0.951204	0.926865	0.8696	0.756805	0.569932	0.308708	0	
0	0.288998	0.533784	0.709238	0.815458	0.8696	0.892731	0.900958	0.903373	0.90395	0.904061	0.904077	0.904079	0.904079	0.904079	0.904079	0.904079	0.904079	0.904079	0.904079	0.904079	0.904079	0.904079	0.904079	0.904079	0.904079	0.904079	0.904079	0.904079	0.904079	0.904079	0.904079	0.904079	0.904079	0.904079	0.904079	0.904079	0.904079	0.904079	0.904079	0.904079	0.904079	0.904079	0.904079	0.904079	0.904079	0.904079	0.904079	0.904077	0.904061	0.90395	0.903373	0.900958	0.892731	0.8696	0.815458	0.709238	0.533784	0.288998	0	
0	0.250845	0.46356	0.616385	0.709238	0.756805	0.777258	0.784594	0.78677	0.787297	0.787399	0.787415	0.787417	0.787417	0.787417	0.787417	0.787417	0.787417	0.787417	0.787417	0.787417	0.787417	0.787417	0.787417	0.787417	0.787417	0.787417	0.787417	0.787417	0.787417	0.787417	0.787417	0.787417	0.787417	0.787417	0.787417	0.787417	0.787417	0.787417	0.787417	0.787417	0.787417	0.787417	0.787417	0.787417	0.787417	0.787417	0.787417	0.787415	0.787399	0.787297	0.78677	0.784594	0.777258	0.756805	0.709238	0.616385	0.46356	0.250845	0	
0	0.188423	0.34838	0.46356	0.533784	0.569932	0.585578	0.591236	0.592933	0.59335	0.593432	0.593445	0.593447	0.593447	0.593447	0.593447	0.593447	0.593447	0.593447	0.593447	0.593447	0.593447	0.593447	0.593447	0.593447	0.593447	0.593447	0.593447	0.593447	0.593447	0.593447	0.593447	0.593447	0.593447	0.593447	0.593447	0.593447	0.593447	0.593447	0.593447	0.593447	0.593447	0.593447	0.593447	0.593447	0.593447	0.593447	0.593447	0.593445	0.593432	0.59335	0.592933	0.591236	0.585578	0.569932	0.533784	0.46356	0.34838	0.188423	0	
0	0.101873	0.188423	0.250845	0.288998	0.308708	0.317278	0.320398	0.32134	0.321575	0.321622	0.321629	0.32163	0.32163	0.32163	0.32163	0.32163	0.32163	0.32163	0.32163	0.32163	0.32163	0.32163	0.32163	0.32163	0.32163	0.32163	0.32163	0.32163	0.32163	0.32163	0.32163	0.32163	0.32163	0.32163	0.32163	0.32163	0.32163	0.32163	0.32163	0.32163	0.32163	0.32163	0.32163	0.32163	0.32163	0.32163	0.32163	0.321629	0.321622	0.321575	0.32134	0.320398	0.317278	0.308708	0.288998	0.250845	0.188423	0.101873	0	
0	0	0	0	0	0	0	0	0	0	0	0	0	0	0	0	0	0	0	0	0	0	0	0	0	0	0	0	0	0	0	0	0	0	0	0	0	0	0	0	0	0	0	0	0	0	0	0	0	0	0	0	0	0	0	0	0	0	0	0	
