0	0	0	0	0	0	0	0	0	0	0	0	0	0	0	0	0	0	0	0	0	0	0	0	0	0	0	0	0	0	0	0	0	0	0	0	0	0	0	0	0	0	0	0	0	0	0	0	0	0	0	0	0	0	0	0	0	0	0	0	
0	0.24032	0.40192	0.47392	0.49472	0.49824	0.49856	0.49856	0.49856	0.49856	0.49856	0.49856	0.49856	0.49856	0.49856	0.49856	0.49856	0.49856	0.49856	0.49856	0.49856	0.49856	0.49856	0.49856	0.49856	0.49856	0.49856	0.49856	0.49856	0.49856	0.49856	0.49856	0.49856	0.49856	0.49856	0.49856	0.49856	0.49856	0.49856	0.49856	0.49856	0.49856	0.49856	0.49856	0.49856	0.49856	0.49856	0.49856	0.49856	0.49856	0.49856	0.49856	0.49856	0.49856	0.49824	0.49472	0.47392	0.40192	0.24032	0	
0	0.40192	0.66912	0.78592	0.81792	0.82304	0.82336	0.82336	0.82336	0.82336	0.82336	0.82336	0.82336	0.82336	0.82336	0.82336	0.82336	0.82336	0.82336	0.82336	0.82336	0.82336	0.82336	0.82336	0.82336	0.82336	0.82336	0.82336	0.82336	0.82336	0.82336	0.82336	0.82336	0.82336	0.82336	0.82336	0.82336	0.82336	0.82336	0.82336	0.82336	0.82336	0.82336	0.82336	0.82336	0.82336	0.82336	0.82336	0.82336	0.82336	0.82336	0.82336	0.82336	0.82336	0.82304	0.81792	0.78592	0.66912	0.40192	0	
0	0.47392	0.78592	0.91872	0.95392	0.95904	0.95936	0.95936	0.95936	0.95936	0.95936	0.95936	0.95936	0.95936	0.95936	0.95936	0.95936	0.95936	0.95936	0.95936	0.95936	0.95936	0.95936	0.95936	0.95936	0.95936	0.95936	0.95936	0.95936	0.95936	0.95936	0.95936	0.95936	0.95936	0.95936	0.95936	0.95936	0.95936	0.95936	0.95936	0.95936	0.95936	0.95936	0.95936	0.95936	0.95936	0.95936	0.95936	0.95936	0.95936	0.95936	0.95936	0.95936	0.95936	0.95904	0.95392	0.91872	0.78592	0.47392	0	
0	0.49472	0.81792	0.95392	0.98912	0.99424	0.99456	0.99456	0.99456	0.99456	0.99456	0.99456	0.99456	0.99456	0.99456	0.99456	0.99456	0.99456	0.99456	0.99456	0.99456	0.99456	0.99456	0.99456	0.99456	0.99456	0.99456	0.99456	0.99456	0.99456	0.99456	0.99456	0.99456	0.99456	0.99456	0.99456	0.99456	0.99456	0.99456	0.99456	0.99456	0.99456	0.99456	0.99456	0.99456	0.99456	0.99456	0.99456	0.99456	0.99456	0.99456	0.99456	0.99456	0.99456	0.99424	0.98912	0.95392	0.81792	0.49472	0	
0	0.49824	0.82304	0.95904	0.99424	0.99936	0.99968	0.99968	0.99968	0.99968	0.99968	0.99968	0.99968	0.99968	0.99968	0.99968	0.99968	0.99968	0.99968	0.99968	0.99968	0.99968	0.99968	0.99968	0.99968	0.99968	0.99968	0.99968	0.99968	0.99968	0.99968	0.99968	0.99968	0.99968	0.99968	0.99968	0.99968	0.99968	0.99968	0.99968	0.99968	0.99968	0.99968	0.99968	0.99968	0.99968	0.99968	0.99968	0.99968	0.99968	0.99968	0.99968	0.99968	0.99968	0.99936	0.99424	0.95904	0.82304	0.49824	0	
0	0.49856	0.82336	0.95936	0.99456	0.99968	1	1	1	1	1	1	1	1	1	1	1	1	1	1	1	1	1	1	1	1	1	1	1	1	1	1	1	1	1	1	1	1	1	1	1	1	1	1	1	1	1	1	1	1	1	1	1	1	0.99968	0.99456	0.95936	0.82336	0.49856	0	
0	0.49856	0.82336	0.95936	0.99456	0.99968	1	1	1	1	1	1	1	1	1	1	1	1	1	1	1	1	1	1	1	1	1	1	1	1	1	1	1	1	1	1	1	1	1	1	1	1	1	1	1	1	1	1	1	1	1	1	1	1	0.99968	0.99456	0.95936	0.82336	0.49856	0	
0	0.49856	0.82336	0.95936	0.99456	0.99968	1	1	1	1	1	1	1	1	1	1	1	1	1	1	1	1	1	1	1	1	1	1	1	1	1	1	1	1	1	1	1	1	1	1	1	1	1	1	1	1	1	1	1	1	1	1	1	1	0.99968	0.99456	0.95936	0.82336	0.49856	0	
0	0.49856	0.82336	0.95936	0.99456	0.99968	1	1	1	1	1	1	1	1	1	1	1	1	1	1	1	1	1	1	1	1	1	1	1	1	1	1	1	1	1	1	1	1	1	1	1	1	1	1	1	1	1	1	1	1	1	1	1	1	0.99968	0.99456	0.95936	0.82336	0.49856	0	
0	0.49856	0.82336	0.95936	0.99456	0.99968	1	1	1	1	1	1	1	1	1	1	1	1	1	1	1	1	1	1	1	1	1	1	1	1	1	1	1	1	1	1	1	1	1	1	1	1	1	1	1	1	1	1	1	1	1	1	1	1	0.99968	0.99456	0.95936	0.82336	0.49856	0	
0	0.49856	0.82336	0.95936	0.99456	0.99968	1	1	1	1	1	1	1	1	1	1	1	1	1	1	1	1	1	1	1	1	1	1	1	1	1	1	1	1	1	1	1	1	1	1	1	1	1	1	1	1	1	1	1	1	1	1	1	1	0.99968	0.99456	0.95936	0.82336	0.49856	0	
0	0.49856	0.82336	0.95936	0.99456	0.99968	1	1	1	1	1	1	1	1	1	1	1	1	1	1	1	1	1	1	1	1	1	1	1	1	1	1	1	1	1	1	1	1	1	1	1	1	1	1	1	1	1	1	1	1	1	1	1	1	0.99968	0.99456	0.95936	0.82336	0.49856	0	
0	0.49856	0.82336	0.95936	0.99456	0.99968	1	1	1	1	1	1	1	1	1	1	1	1	1	1	1	1	1	1	1	1	1	1	1	1	1	1	1	1	1	1	1	1	1	1	1	1	1	1	1	1	1	1	1	1	1	1	1	1	0.99968	0.99456	0.95936	0.82336	0.49856	0	
0	0.49856	0.82336	0.95936	0.99456	0.99968	1	1	1	1	1	1	1	1	1	1	1	1	1	1	1	1	1	1	1	1	1	1	1	1	1	1	1	1	1	1	1	1	1	1	1	1	1	1	1	1	1	1	1	1	1	1	1	1	0.99968	0.99456	0.95936	0.82336	0.49856	0	
0	0.49856	0.82336	0.95936	0.99456	0.99968	1	1	1	1	1	1	1	1	1	1	1	1	1	1	1	1	1	1	1	1	1	1	1	1	1	1	1	1	1	1	1	1	1	1	1	1	1	1	1	1	1	1	1	1	1	1	1	1	0.99968	0.99456	0.95936	0.82336	0.49856	0	
0	0.49856	0.82336	0.95936	0.99456	0.99968	1	1	1	1	1	1	1	1	1	1	1	1	1	1	1	1	1	1	1	1	1	1	1	1	1	1	1	1	1	1	1	1	1	1	1	1	1	1	1	1	1	1	1	1	1	1	1	1	0.99968	0.99456	0.95936	0.82336	0.49856	0	
0	0.49856	0.82336	0.95936	0.99456	0.99968	1	1	1	1	1	1	1	1	1	1	1	1	1	1	1	1	1	1	1	1	1	1	1	1	1	1	1	1	1	1	1	1	1	1	1	1	1	1	1	1	1	1	1	1	1	1	1	1	0.99968	0.99456	0.95936	0.82336	0.49856	0	
0	0.49856	0.82336	0.95936	0.99456	0.99968	1	1	1	1	1	1	1	1	1	1	1	1	1	1	1	1	1	1	1	1	1	1	1	1	1	1	1	1	1	1	1	1	1	1	1	1	1	1	1	1	1	1	1	1	1	1	1	1	0.99968	0.99456	0.95936	0.82336	0.49856	0	
0	0.49856	0.82336	0.95936	0.99456	0.99968	1	1	1	1	1	1	1	1	1	1	1	1	1	1	1	1	1	1	1	1	1	1	1	1	1	1	1	1	1	1	1	1	1	1	1	1	1	1	1	1	1	1	1	1	1	1	1	1	0.99968	0.99456	0.95936	0.82336	0.49856	0	
0	0.49856	0.82336	0.95936	0.99456	0.99968	1	1	1	1	1	1	1	1	1	1	1	1	1	1	1	1	1	1	1	1	1	1	1	1	1	1	1	1	1	1	1	1	1	1	1	1	1	1	1	1	1	1	1	1	1	1	1	1	0.99968	0.99456	0.95936	0.82336	0.49856	0	
0	0.49856	0.82336	0.95936	0.99456	0.99968	1	1	1	1	1	1	1	1	1	1	1	1	1	1	1	1	1	1	1	1	1	1	1	1	1	1	1	1	1	1	1	1	1	1	1	1	1	1	1	1	1	1	1	1	1	1	1	1	0.99968	0.99456	0.95936	0.82336	0.49856	0	
0	0.49856	0.82336	0.95936	0.99456	0.99968	1	1	1	1	1	1	1	1	1	1	1	1	1	1	1	1	1	1	1	1	1	1	1	1	1	1	1	1	1	1	1	1	1	1	1	1	1	1	1	1	1	1	1	1	1	1	1	1	0.99968	0.99456	0.95936	0.82336	0.49856	0	
0	0.49856	0.82336	0.95936	0.99456	0.99968	1	1	1	1	1	1	1	1	1	1	1	1	1	1	1	1	1	1	1	1	1	1	1	1	1	1	1	1	1	1	1	1	1	1	1	1	1	1	1	1	1	1	1	1	1	1	1	1	0.99968	0.99456	0.95936	0.82336	0.49856	0	
0	0.49856	0.82336	0.95936	0.99456	0.99968	1	1	1	1	1	1	1	1	1	1	1	1	1	1	1	1	1	1	1	1	1	1	1	1	1	1	1	1	1	1	1	1	1	1	1	1	1	1	1	1	1	1	1	1	1	1	1	1	0.99968	0.99456	0.95936	0.82336	0.49856	0	
0	0.49856	0.82336	0.95936	0.99456	0.99968	1	1	1	1	1	1	1	1	1	1	1	1	1	1	1	1	1	1	1	1	1	1	1	1	1	1	1	1	1	1	1	1	1	1	1	1	1	1	1	1	1	1	1	1	1	1	1	1	0.99968	0.99456	0.95936	0.82336	0.49856	0	
0	0.49856	0.82336	0.95936	0.99456	0.99968	1	1	1	1	1	1	1	1	1	1	1	1	1	1	1	1	1	1	1	1	1	1	1	1	1	1	1	1	1	1	1	1	1	1	1	1	1	1	1	1	1	1	1	1	1	1	1	1	0.99968	0.99456	0.95936	0.82336	0.49856	0	
0	0.49856	0.82336	0.95936	0.99456	0.99968	1	1	1	1	1	1	1	1	1	1	1	1	1	1	1	1	1	1	1	1	1	1	1	1	1	1	1	1	1	1	1	1	1	1	1	1	1	1	1	1	1	1	1	1	1	1	1	1	0.99968	0.99456	0.95936	0.82336	0.49856	0	
0	0.49856	0.82336	0.95936	0.99456	0.99968	1	1	1	1	1	1	1	1	1	1	1	1	1	1	1	1	1	1	1	1	1	1	1	1	1	1	1	1	1	1	1	1	1	1	1	1	1	1	1	1	1	1	1	1	1	1	1	1	0.99968	0.99456	0.95936	0.82336	0.49856	0	
0	0.49856	0.82336	0.95936	0.99456	0.99968	1	1	1	1	1	1	1	1	1	1	1	1	1	1	1	1	1	1	1	1	1	1	1	1	1	1	1	1	1	1	1	1	1	1	1	1	1	1	1	1	1	1	1	1	1	1	1	1	0.99968	0.99456	0.95936	0.82336	0.49856	0	
0	0.49856	0.82336	0.95936	0.99456	0.99968	1	1	1	1	1	1	1	1	1	1	1	1	1	1	1	1	1	1	1	1	1	1	1	1	1	1	1	1	1	1	1	1	1	1	1	1	1	1	1	1	1	1	1	1	1	1	1	1	0.99968	0.99456	0.95936	0.82336	0.49856	0	
0	0.49856	0.82336	0.95936	0.99456	0.99968	1	1	1	1	1	1	1	1	1	1	1	1	1	1	1	1	1	1	1	1	1	1	1	1	1	1	1	1	1	1	1	1	1	1	1	1	1	1	1	1	1	1	1	1	1	1	1	1	0.99968	0.99456	0.95936	0.82336	0.49856	0	
0	0.49856	0.82336	0.95936	0.99456	0.99968	1	1	1	1	1	1	1	1	1	1	1	1	1	1	1	1	1	1	1	1	1	1	1	1	1	1	1	1	1	1	1	1	1	1	1	1	1	1	1	1	1	1	1	1	1	1	1	1	0.99968	0.99456	0.95936	0.82336	0.49856	0	
0	0.49856	0.82336	0.95936	0.99456	0.99968	1	1	1	1	1	1	1	1	1	1	1	1	1	1	1	1	1	1	1	1	1	1	1	1	1	1	1	1	1	1	1	1	1	1	1	1	1	1	1	1	1	1	1	1	1	1	1	1	0.99968	0.99456	0.95936	0.82336	0.49856	0	
0	0.49856	0.82336	0.95936	0.99456	0.99968	1	1	1	1	1	1	1	1	1	1	1	1	1	1	1	1	1	1	1	1	1	1	1	1	1	1	1	1	1	1	1	1	1	1	1	1	1	1	1	1	1	1	1	1	1	1	1	1	0.99968	0.99456	0.95936	0.82336	0.49856	0	
0	0.49856	0.82336	0.95936	0.99456	0.99968	1	1	1	1	1	1	1	1	1	1	1	1	1	1	1	1	1	1	1	1	1	1	1	1	1	1	1	1	1	1	1	1	1	1	1	1	1	1	1	1	1	1	1	1	1	1	1	1	0.99968	0.99456	0.95936	0.82336	0.49856	0	
0	0.49856	0.82336	0.95936	0.99456	0.99968	1	1	1	1	1	1	1	1	1	1	1	1	1	1	1	1	1	1	1	1	1	1	1	1	1	1	1	1	1	1	1	1	1	1	1	1	1	1	1	1	1	1	1	1	1	1	1	1	0.99968	0.99456	0.95936	0.82336	0.49856	0	
0	0.49856	0.82336	0.95936	0.99456	0.99968	1	1	1	1	1	1	1	1	1	1	1	1	1	1	1	1	1	1	1	1	1	1	1	1	1	1	1	1	1	1	1	1	1	1	1	1	1	1	1	1	1	1	1	1	1	1	1	1	0.99968	0.99456	0.95936	0.82336	0.49856	0	
0	0.49856	0.82336	0.95936	0.99456	0.99968	1	1	1	1	1	1	1	1	1	1	1	1	1	1	1	1	1	1	1	1	1	1	1	1	1	1	1	1	1	1	1	1	1	1	1	1	1	1	1	1	1	1	1	1	1	1	1	1	0.99968	0.99456	0.95936	0.82336	0.49856	0	
0	0.49856	0.82336	0.95936	0.99456	0.99968	1	1	1	1	1	1	1	1	1	1	1	1	1	1	1	1	1	1	1	1	1	1	1	1	1	1	1	1	1	1	1	1	1	1	1	1	1	1	1	1	1	1	1	1	1	1	1	1	0.99968	0.99456	0.95936	0.82336	0.49856	0	
0	0.49856	0.82336	0.95936	0.99456	0.99968	1	1	1	1	1	1	1	1	1	1	1	1	1	1	1	1	1	1	1	1	1	1	1	1	1	1	1	1	1	1	1	1	1	1	1	1	1	1	1	1	1	1	1	1	1	1	1	1	0.99968	0.99456	0.95936	0.82336	0.49856	0	
0	0.49856	0.82336	0.95936	0.99456	0.99968	1	1	1	1	1	1	1	1	1	1	1	1	1	1	1	1	1	1	1	1	1	1	1	1	1	1	1	1	1	1	1	1	1	1	1	1	1	1	1	1	1	1	1	1	1	1	1	1	0.99968	0.99456	0.95936	0.82336	0.49856	0	
0	0.49856	0.82336	0.95936	0.99456	0.99968	1	1	1	1	1	1	1	1	1	1	1	1	1	1	1	1	1	1	1	1	1	1	1	1	1	1	1	1	1	1	1	1	1	1	1	1	1	1	1	1	1	1	1	1	1	1	1	1	0.99968	0.99456	0.95936	0.82336	0.49856	0	
0	0.49856	0.82336	0.95936	0.99456	0.99968	1	1	1	1	1	1	1	1	1	1	1	1	1	1	1	1	1	1	1	1	1	1	1	1	1	1	1	1	1	1	1	1	1	1	1	1	1	1	1	1	1	1	1	1	1	1	1	1	0.99968	0.99456	0.95936	0.82336	0.49856	0	
0	0.49824	0.82304	0.95904	0.99424	0.99936	0.99968	0.99968	0.99968	0.99968	0.99968	0.99968	0.99968	0.99968	0.99968	0.99968	0.99968	0.99968	0.99968	0.99968	0.99968	0.99968	0.99968	0.99968	0.99968	0.99968	0.99968	0.99968	0.99968	0.99968	0.99968	0.99968	0.99968	0.99968	0.99968	0.99968	0.99968	0.99968	0.99968	0.99968	0.99968	0.99968	0.99968	0.99968	0.99968	0.99968	0.99968	0.99968	0.99968	0.99968	0.99968	0.99968	0.99968	0.99968	0.99936	0.99424	0.95904	0.82304	0.49824	0	
0	0.49472	0.81792	0.95392	0.98912	0.99424	0.99456	0.99456	0.99456	0.99456	0.99456	0.99456	0.99456	0.99456	0.99456	0.99456	0.99456	0.99456	0.99456	0.99456	0.99456	0.99456	0.99456	0.99456	0.99456	0.99456	0.99456	0.99456	0.99456	0.99456	0.99456	0.99456	0.99456	0.99456	0.99456	0.99456	0.99456	0.99456	0.99456	0.99456	0.99456	0.99456	0.99456	0.99456	0.99456	0.99456	0.99456	0.99456	0.99456	0.99456	0.99456	0.99456	0.99456	0.99456	0.99424	0.98912	0.95392	0.81792	0.49472	0	
0	0.47392	0.78592	0.91872	0.95392	0.95904	0.95936	0.95936	0.95936	0.95936	0.95936	0.95936	0.95936	0.95936	0.95936	0.95936	0.95936	0.95936	0.95936	0.95936	0.95936	0.95936	0.95936	0.95936	0.95936	0.95936	0.95936	0.95936	0.95936	0.95936	0.95936	0.95936	0.95936	0.95936	0.95936	0.95936	0.95936	0.95936	0.95936	0.95936	0.95936	0.95936	0.95936	0.95936	0.95936	0.95936	0.95936	0.95936	0.95936	0.95936	0.95936	0.95936	0.95936	0.95936	0.95904	0.95392	0.91872	0.78592	0.47392	0	
0	0.40192	0.66912	0.78592	0.81792	0.82304	0.82336	0.82336	0.82336	0.82336	0.82336	0.82336	0.82336	0.82336	0.82336	0.82336	0.82336	0.82336	0.82336	0.82336	0.82336	0.82336	0.82336	0.82336	0.82336	0.82336	0.82336	0.82336	0.82336	0.82336	0.82336	0.82336	0.82336	0.82336	0.82336	0.82336	0.82336	0.82336	0.82336	0.82336	0.82336	0.82336	0.82336	0.82336	0.82336	0.82336	0.82336	0.82336	0.82336	0.82336	0.82336	0.82336	0.82336	0.82336	0.82304	0.81792	0.78592	0.66912	0.40192	0	
0	0.24032	0.40192	0.47392	0.49472	0.49824	0.49856	0.49856	0.49856	0.49856	0.49856	0.49856	0.49856	0.49856	0.49856	0.49856	0.49856	0.49856	0.49856	0.49856	0.49856	0.49856	0.49856	0.49856	0.49856	0.49856	0.49856	0.49856	0.49856	0.49856	0.49856	0.49856	0.49856	0.49856	0.49856	0.49856	0.49856	0.49856	0.49856	0.49856	0.49856	0.49856	0.49856	0.49856	0.49856	0.49856	0.49856	0.49856	0.49856	0.49856	0.49856	0.49856	0.49856	0.49856	0.49824	0.49472	0.47392	0.40192	0.24032	0	
0	0	0	0	0	0	0	0	0	0	0	0	0	0	0	0	0	0	0	0	0	0	0	0	0	0	0	0	0	0	0	0	0	0	0	0	0	0	0	0	0	0	0	0	0	0	0	0	0	0	0	0	0	0	0	0	0	0	0	0	
